^F:\ALEXEY\PROJECTS_UE4\CONSOLEAPPLICATION3\CONSOLEAPPLICATION3\CONSOLEAPPLICATION3.CPP
F:\ALEXEY\PROJECTS_UE4\CONSOLEAPPLICATION3\CONSOLEAPPLICATION3\X64\DEBUG\VC143.PDB
F:\ALEXEY\PROJECTS_UE4\CONSOLEAPPLICATION3\CONSOLEAPPLICATION3\X64\DEBUG\VC143.IDB
F:\ALEXEY\PROJECTS_UE4\CONSOLEAPPLICATION3\CONSOLEAPPLICATION3\X64\DEBUG\CONSOLEAPPLICATION3.OBJ
